<svg width="548" height="437" viewBox="0 0 548 437" fill="none" xmlns="http://www.w3.org/2000/svg">
<g clip-path="url(#clip0)">
<path d="M80.2555 395.055C187.255 450.977 360.746 450.977 467.745 395.055C574.744 339.133 574.744 248.462 467.745 192.54C360.746 136.618 187.255 136.618 80.2555 192.54C-26.7557 248.462 -26.7557 339.133 80.2555 395.055Z" fill="#F5F5F5"/>
<path d="M50.3801 303.357L15.5986 283.259V208.635L50.3801 228.72V303.357Z" fill="#E0E0E0"/>
<path d="M50.3799 228.72L100.075 200.018V274.655L50.3799 303.357V228.72Z" fill="#EBEBEB"/>
<path d="M100.075 200.018L50.3801 228.72L15.5986 208.635L65.2934 179.921L100.075 200.018Z" fill="#F5F5F5"/>
<path d="M55.3472 231.596L95.1079 208.635L96.0254 209.161V236.798L56.2647 259.759L55.3472 259.233V231.596Z" fill="#E0E0E0"/>
<path d="M56.2646 232.123L96.0253 209.161V236.798L56.2646 259.759V232.123Z" fill="#F5F5F5"/>
<path d="M71.8507 227.802L78.6161 223.898C79.497 223.396 80.2066 223.628 80.2066 224.412C80.2066 225.207 79.497 226.26 78.6161 226.762L71.8507 230.666C70.9698 231.168 70.2603 230.948 70.2603 230.152C70.2603 229.369 70.9698 228.316 71.8507 227.802Z" fill="#E0E0E0"/>
<path d="M54.4419 266.577L94.1904 243.603V271.252L95.1079 271.779L55.3472 294.74L54.4297 294.214L54.4419 266.577Z" fill="#E0E0E0"/>
<path d="M55.3472 267.103L95.1078 244.142V271.779L55.3472 294.74V267.103Z" fill="#F5F5F5"/>
<path d="M70.9332 262.783L77.6986 258.878C78.5795 258.376 79.2891 258.609 79.2891 259.392C79.2891 260.188 78.5795 261.24 77.6986 261.742L70.9332 265.647C70.0523 266.149 69.3428 265.916 69.3428 265.133C69.3428 264.349 70.0523 263.297 70.9332 262.783Z" fill="#E0E0E0"/>
<path d="M50.3801 224.424L15.5986 204.327V129.69L50.3801 149.787V224.424Z" fill="#E0E0E0"/>
<path d="M50.3799 149.787L100.075 121.086V195.71L50.3799 224.424V149.787Z" fill="#EBEBEB"/>
<path d="M100.075 121.086L50.3801 149.787L15.5986 129.69L65.2934 100.988L100.075 121.086Z" fill="#F5F5F5"/>
<path d="M55.3472 152.651L95.1079 129.69L96.0254 130.216L96.0132 157.865L56.2647 180.827L55.3472 180.3V152.651Z" fill="#E0E0E0"/>
<path d="M71.8507 148.869L78.6161 144.965C79.497 144.463 80.2066 144.683 80.2066 145.479C80.2066 146.275 79.497 147.327 78.6161 147.829L71.8507 151.733C70.9698 152.235 70.2603 152.015 70.2603 151.219C70.2603 150.424 70.9698 149.371 71.8507 148.869Z" fill="#E0E0E0"/>
<path d="M54.4297 187.632L94.1904 164.671V192.32L95.1079 192.846L55.3472 215.807L54.4297 215.281V187.632Z" fill="#E0E0E0"/>
<path d="M55.3472 188.17L95.1078 165.197V192.846L55.3472 215.807V188.17Z" fill="#F5F5F5"/>
<path d="M70.9332 183.85L77.6986 179.945C78.5795 179.444 79.2891 179.664 79.2891 180.46C79.2891 181.255 78.5795 182.308 77.6986 182.81L70.9332 186.714C70.0523 187.216 69.3428 186.995 69.3428 186.2C69.3428 185.404 70.0523 184.352 70.9332 183.85Z" fill="#E0E0E0"/>
<path d="M55.3472 152.651L95.1078 129.69V157.339L55.3472 180.3V152.651Z" fill="#E0E0E0"/>
<path d="M114.988 143.349L93.2236 130.779V155.136L114.988 167.706V143.349Z" fill="#E0E0E0"/>
<path d="M70.2603 184.229V149.787L78.7874 144.843L80.1943 146.911L105.042 132.566V164.132L70.2603 184.229Z" fill="#EBEBEB"/>
<path d="M70.2603 184.229L72.7438 154.096L107.525 133.998L105.042 164.132L70.2603 184.229Z" fill="#F5F5F5"/>
<path d="M75.2274 166.311L56.2646 155.356V179.713L75.2274 190.667V166.311Z" fill="#EBEBEB"/>
<path d="M75.2275 164.132L114.988 141.171L114.976 168.82L75.2275 191.781V164.132Z" fill="#F5F5F5"/>
<path d="M90.8136 159.824L97.579 155.919C98.4599 155.417 99.1694 155.638 99.1694 156.433C99.1694 157.229 98.4599 158.282 97.579 158.783L90.8136 162.688C89.9327 163.19 89.2231 162.969 89.2231 162.174C89.2231 161.378 89.9327 160.326 90.8136 159.824Z" fill="#E0E0E0"/>
<path d="M75.2275 164.132L73.9062 163.373V191.01L75.2275 191.781V164.132Z" fill="#E0E0E0"/>
<path d="M73.9062 163.373L113.655 140.412L114.988 141.171L75.2275 164.132L73.9062 163.373Z" fill="#EBEBEB"/>
<path d="M461.298 258.132L426.504 238.047V163.41L461.298 183.507V258.132Z" fill="#E0E0E0"/>
<path d="M461.297 183.507L510.992 154.806V229.43L461.297 258.132V183.507Z" fill="#EBEBEB"/>
<path d="M510.992 154.806L461.298 183.507L426.504 163.41L476.199 134.708L510.992 154.806Z" fill="#F5F5F5"/>
<path d="M466.265 186.371L506.025 163.41L506.931 163.936V191.585L467.182 214.547L466.265 214.02V186.371Z" fill="#E0E0E0"/>
<path d="M467.182 186.898L506.931 163.936V191.585L467.182 214.547V186.898Z" fill="#F5F5F5"/>
<path d="M482.769 182.589L489.534 178.685C490.415 178.183 491.124 178.403 491.124 179.199C491.124 179.994 490.415 181.047 489.534 181.549L482.769 185.453C481.888 185.955 481.178 185.735 481.178 184.939C481.178 184.144 481.888 183.091 482.769 182.589Z" fill="#E0E0E0"/>
<path d="M465.347 221.352L505.108 198.39V226.027L506.025 226.566L466.265 249.527L465.347 249.001V221.352Z" fill="#E0E0E0"/>
<path d="M466.265 221.878L506.025 198.917V226.566L466.265 249.527V221.878Z" fill="#F5F5F5"/>
<path d="M481.851 217.57L488.616 213.665C489.497 213.164 490.207 213.396 490.207 214.179C490.207 214.975 489.497 216.028 488.616 216.529L481.851 220.434C480.97 220.936 480.26 220.715 480.26 219.92C480.26 219.124 480.97 218.072 481.851 217.57Z" fill="#E0E0E0"/>
<path d="M130.305 336.146C130.305 336.146 130.452 316.734 118.218 302.182C107.378 289.293 101.616 281.117 105.041 277.348C108.467 273.578 115.783 272.672 125.693 283.088C135.59 293.504 136.361 322.401 134.99 328.937L130.305 336.146Z" fill="#0066FF"/>
<path opacity="0.2" d="M130.305 336.146C130.305 336.146 130.452 316.734 118.218 302.182C107.378 289.293 101.616 281.117 105.041 277.348C108.467 273.578 115.783 272.672 125.693 283.088C135.59 293.504 136.361 322.401 134.99 328.937L130.305 336.146Z" fill="black"/>
<path d="M132.421 315.278C132.14 315.278 131.883 315.082 131.822 314.788C127.54 294.752 116.542 283.675 110.376 278.853C110.106 278.645 110.058 278.266 110.266 277.996C110.474 277.727 110.853 277.678 111.122 277.886C117.422 282.806 128.653 294.116 133.009 314.531C133.082 314.862 132.874 315.192 132.544 315.253C132.507 315.266 132.458 315.278 132.421 315.278Z" fill="white"/>
<path d="M129.889 343.368L124.922 346.244C124.922 346.244 123.65 341.776 118.218 340.504C112.786 339.231 107.121 339.488 103.317 334.763C99.5119 330.039 104.149 324.91 103.317 321.422C102.485 317.946 101.934 316.942 95.1199 313.466C88.2933 309.99 85.6018 304.226 90.7401 300.309C95.8784 296.392 104.222 299.269 109.238 302.696C113.716 305.756 117.973 306.563 122.977 307.175C127.968 307.787 136.128 310.59 134.881 322.205C133.62 333.845 129.889 343.368 129.889 343.368Z" fill="#0066FF"/>
<path d="M110.755 328.068C110.498 328.068 110.253 327.909 110.168 327.64C110.07 327.322 110.241 326.967 110.559 326.869C111.012 326.722 121.594 323.38 126.072 326.979C126.341 327.187 126.378 327.579 126.17 327.836C125.962 328.105 125.57 328.142 125.313 327.934C121.35 324.751 111.048 328.007 110.938 328.044C110.877 328.068 110.816 328.068 110.755 328.068Z" fill="white"/>
<path d="M130.452 342.425C130.146 342.425 129.877 342.193 129.84 341.874C127.112 316.098 96.074 303.871 95.7681 303.748C95.45 303.626 95.291 303.271 95.4133 302.953C95.5357 302.635 95.8904 302.475 96.2085 302.598C96.5266 302.72 128.262 315.217 131.063 341.74C131.1 342.07 130.855 342.376 130.525 342.413C130.501 342.425 130.476 342.425 130.452 342.425Z" fill="white"/>
<path d="M434.749 326.416C434.896 326 440.132 298.963 434.749 279.796C429.807 262.22 423.47 255.733 414.367 254.301C405.265 252.869 401.314 259.429 406.146 268.303C410.979 277.189 422.601 288.987 425.464 308.84C426.638 317.016 427.617 324.115 427.617 324.115L434.749 326.416Z" fill="#0066FF"/>
<path opacity="0.2" d="M434.749 326.416C434.896 326 440.132 298.963 434.749 279.796C429.807 262.22 423.47 255.733 414.367 254.301C405.265 252.869 401.314 259.429 406.146 268.303C410.979 277.189 422.601 288.987 425.464 308.84C426.638 317.016 427.617 324.115 427.617 324.115L434.749 326.416Z" fill="black"/>
<path d="M431.679 310.896C431.666 310.896 431.654 310.896 431.642 310.896C431.299 310.872 431.042 310.59 431.067 310.247C432.315 288.363 425.146 268.829 412.337 259.245C412.067 259.037 412.006 258.658 412.214 258.389C412.422 258.119 412.801 258.058 413.071 258.266C426.198 268.082 433.563 288.021 432.29 310.309C432.278 310.651 432.009 310.896 431.679 310.896Z" fill="white"/>
<path d="M448.831 340.491C448.133 335.461 451.02 327.921 457.884 326.134C464.747 324.36 467.805 320.406 465.334 316.098C462.851 311.79 463.438 307.836 469.665 306.049C475.892 304.262 481.349 301.129 477.764 294.569C475.158 289.807 474.583 286.735 480.969 277.348C486.267 269.563 481.936 264.998 475.305 265.867C468.674 266.736 464.576 274.618 460.441 275.952C456.305 277.286 455.327 270.212 449.858 273.37C444.39 276.528 444.732 284.618 444.549 290.26C444.377 295.903 444.01 297.176 439.068 296.49C434.125 295.793 429.293 296.613 429.391 308.571C429.476 318.827 434.945 331.532 434.945 331.532L448.831 340.491Z" fill="#0066FF"/>
<path d="M440.156 332.842C440.132 332.842 440.107 332.842 440.083 332.842C439.753 332.805 439.508 332.499 439.545 332.168C442.995 301.325 469.445 275.328 476.345 270.053C476.614 269.845 476.993 269.894 477.201 270.163C477.409 270.432 477.36 270.812 477.091 271.02C470.289 276.222 444.169 301.888 440.768 332.303C440.731 332.609 440.462 332.842 440.156 332.842Z" fill="white"/>
<path d="M452.219 299.893C451.975 299.893 451.742 299.746 451.644 299.489C451.522 299.171 451.693 298.816 451.999 298.706C461.872 295.034 473.042 296.759 473.519 296.833C473.849 296.882 474.082 297.2 474.02 297.531C473.971 297.861 473.641 298.081 473.323 298.045C473.213 298.02 461.982 296.294 452.427 299.844C452.366 299.881 452.293 299.893 452.219 299.893Z" fill="white"/>
<path d="M443.435 318.411C443.264 318.411 443.093 318.338 442.971 318.203C436.389 310.749 434.97 301.851 434.908 301.472C434.859 301.141 435.092 300.823 435.422 300.774C435.765 300.725 436.071 300.958 436.12 301.288C436.132 301.374 437.551 310.211 443.888 317.395C444.108 317.652 444.084 318.032 443.839 318.264C443.729 318.362 443.582 318.411 443.435 318.411Z" fill="white"/>
<path d="M129.889 153.924V343.368L323.701 231.425V59.1903L179.584 142.431L174.617 128.087L129.889 153.924Z" fill="#0066FF"/>
<path opacity="0.7" d="M129.889 153.924V343.368L323.701 231.425V59.1903L179.584 142.431L174.617 128.087L129.889 153.924Z" fill="black"/>
<path d="M129.889 343.368L139.835 171.145L333.647 59.1903L323.701 231.425L129.889 343.368Z" fill="#E0E0E0"/>
<path d="M129.889 343.368L144.802 174.009L338.614 62.0666L323.701 231.425L129.889 343.368Z" fill="#0066FF"/>
<path opacity="0.7" d="M129.889 343.368L144.802 174.009L338.614 62.0666L323.701 231.425L129.889 343.368Z" fill="black"/>
<path d="M159.715 171.145V360.589L353.527 248.646V76.4114L209.41 159.665L204.443 145.308L159.715 171.145Z" fill="#0066FF"/>
<path opacity="0.5" d="M159.715 171.145V360.589L353.527 248.646V76.4114L209.41 159.665L204.443 145.308L159.715 171.145Z" fill="black"/>
<path d="M159.715 360.589L169.649 188.366L363.461 76.4114L353.527 248.646L159.715 360.589Z" fill="#E0E0E0"/>
<path d="M159.715 360.589L174.616 191.23L368.428 79.2877L353.527 248.646L159.715 360.589Z" fill="#0066FF"/>
<path opacity="0.5" d="M159.715 360.589L174.616 191.23L368.428 79.2877L353.527 248.646L159.715 360.589Z" fill="black"/>
<path d="M323.701 420.868C288.919 400.771 256.634 378.936 241.904 353.294L286.632 327.456L323.701 420.868Z" fill="#E0E0E0"/>
<path d="M194.497 191.23V380.686L388.309 268.731V96.5086L244.192 179.75L239.225 165.405L194.497 191.23Z" fill="#0066FF"/>
<path opacity="0.2" d="M194.497 191.23V380.686L388.309 268.731V96.5086L244.192 179.75L239.225 165.405L194.497 191.23Z" fill="black"/>
<path d="M250.333 247.251C249.844 247.251 249.771 246.688 249.771 246.345V84.7587C249.771 83.6204 250.602 82.1884 251.581 81.6132L391.465 0.820041C391.698 0.685406 391.918 0.611969 392.101 0.611969C392.591 0.611969 392.664 1.17499 392.664 1.51769V163.104C392.664 164.242 391.832 165.674 390.854 166.249L250.969 247.043C250.737 247.177 250.517 247.251 250.333 247.251Z" fill="white"/>
<path d="M392.028 1.23619C392.04 1.29739 392.065 1.38307 392.065 1.5177V163.104C392.065 164.01 391.343 165.258 390.56 165.711L250.663 246.504C250.553 246.565 250.468 246.602 250.407 246.614C250.394 246.553 250.382 246.467 250.382 246.333V84.7587C250.382 83.853 251.104 82.6046 251.887 82.1517L391.771 1.34635C391.881 1.28515 391.967 1.24843 392.028 1.23619ZM392.101 0C391.82 0 391.49 0.0979162 391.159 0.293749L251.275 81.0868C250.101 81.76 249.159 83.4124 249.159 84.7587V246.345C249.159 247.3 249.636 247.863 250.333 247.863C250.615 247.863 250.945 247.765 251.275 247.569L391.159 166.776C392.334 166.103 393.276 164.45 393.276 163.104V1.5177C393.276 0.550779 392.799 0 392.101 0Z" fill="#0066FF"/>
<path opacity="0.7" d="M392.028 1.23619C392.04 1.29739 392.065 1.38307 392.065 1.5177V163.104C392.065 164.01 391.343 165.258 390.56 165.711L250.663 246.504C250.553 246.565 250.468 246.602 250.407 246.614C250.394 246.553 250.382 246.467 250.382 246.333V84.7587C250.382 83.853 251.104 82.6046 251.887 82.1517L391.771 1.34635C391.881 1.28515 391.967 1.24843 392.028 1.23619ZM392.101 0C391.82 0 391.49 0.0979162 391.159 0.293749L251.275 81.0868C250.101 81.76 249.159 83.4124 249.159 84.7587V246.345C249.159 247.3 249.636 247.863 250.333 247.863C250.615 247.863 250.945 247.765 251.275 247.569L391.159 166.776C392.334 166.103 393.276 164.45 393.276 163.104V1.5177C393.276 0.550779 392.799 0 392.101 0Z" fill="white"/>
<path d="M264.072 90.9152L313.767 62.2135V119.629L264.072 148.331V90.9152Z" fill="#0066FF"/>
<path opacity="0.8" d="M264.072 90.9152L313.767 62.2135V119.629L264.072 148.331V90.9152Z" fill="white"/>
<path d="M306.304 76.5705V93.7915L304.75 94.6605C304.75 94.6605 304.75 92.2983 304.75 89.3852C304.75 86.4722 302.377 85.4808 299.453 87.1699L278.374 99.3482C275.45 101.037 273.076 104.77 273.076 107.683V112.959L271.522 113.889V96.6555L306.304 76.5705Z" fill="white"/>
<path d="M296.725 120.461C294.18 121.93 292.113 120.388 292.113 117.01V89.3853L285.726 92.8613V120.694C285.726 124.072 283.659 128.013 281.114 129.482L276.502 132.15V133.974L301.349 119.617V117.793C301.337 117.793 299.27 118.993 296.725 120.461Z" fill="white"/>
<path d="M323.701 59.3495C323.701 60.9406 325.12 61.3935 326.882 60.3898L375.194 32.4837C376.943 31.4678 378.375 29.3626 378.375 27.7715C378.375 26.1926 376.956 25.7275 375.194 26.7311L326.882 54.6372C325.12 55.6531 323.701 57.7583 323.701 59.3495Z" fill="#455A64"/>
<path d="M323.701 76.5705C323.701 78.1616 325.12 78.6145 326.882 77.6108L375.194 49.7047C376.943 48.6888 378.375 46.5836 378.375 44.9925C378.375 43.4136 376.956 42.9485 375.194 43.9521L326.882 71.8583C325.12 72.8741 323.701 74.9793 323.701 76.5705Z" fill="#455A64"/>
<path d="M323.701 93.7915C323.701 95.3826 325.12 95.8355 326.882 94.8319L375.194 66.9257C376.943 65.9099 378.375 63.8047 378.375 62.2135C378.375 60.6346 376.956 60.1695 375.194 61.1732L326.882 89.0793C325.12 90.0952 323.701 92.2004 323.701 93.7915Z" fill="#455A64"/>
<path d="M323.701 111.012C323.701 112.604 325.12 113.057 326.882 112.053L375.194 84.1467C376.943 83.1309 378.375 81.0257 378.375 79.4345C378.375 77.8556 376.956 77.3905 375.194 78.3942L326.882 106.3C325.12 107.316 323.701 109.421 323.701 111.012Z" fill="#455A64"/>
<path d="M264.072 162.688C264.072 164.279 265.491 164.732 267.253 163.728L375.194 101.38C376.943 100.364 378.375 98.2589 378.375 96.6678C378.375 95.0889 376.955 94.6238 375.194 95.6274L267.253 157.976C265.491 158.991 264.072 161.097 264.072 162.688Z" fill="#455A64"/>
<path d="M264.072 179.909C264.072 181.488 265.491 181.953 267.253 180.949L375.194 118.601C376.943 117.585 378.375 115.48 378.375 113.889C378.375 112.298 376.955 111.845 375.194 112.848L267.253 175.197C265.491 176.212 264.072 178.318 264.072 179.909Z" fill="#455A64"/>
<path d="M264.072 197.13C264.072 198.709 265.491 199.174 267.253 198.17L375.194 135.822C376.943 134.806 378.375 132.701 378.375 131.11C378.375 129.519 376.955 129.066 375.194 130.069L267.253 192.418C265.491 193.433 264.072 195.551 264.072 197.13Z" fill="#455A64"/>
<path d="M194.497 380.686L229.278 228.549L423.09 116.606L388.309 268.731L194.497 380.686Z" fill="#0066FF"/>
<path d="M241.917 240.47V353.294L286.632 327.456V214.632L241.917 240.47Z" fill="#0066FF"/>
<path opacity="0.2" d="M241.917 240.47V353.294L286.632 327.456V214.632L241.917 240.47Z" fill="black"/>
<path d="M323.75 420.134C319.945 417.307 283.28 389.254 264.635 349.194C244.792 306.551 244.804 256.81 244.816 238.095V237.508L377.776 160.717C377.764 179.615 377.8 229.418 397.717 272.207C415.934 311.337 451.205 339.059 456.796 343.294L323.75 420.134Z" fill="white"/>
<path d="M377.152 161.782C377.152 181.463 377.531 230.336 397.142 272.476C414.747 310.284 448.219 337.493 455.67 343.233L323.787 419.412C318.636 415.52 283.329 387.956 265.173 348.937C245.379 306.417 245.403 256.785 245.403 238.095V237.863L377.152 161.782ZM378.375 159.665L244.192 237.165C244.192 254.778 243.825 305.951 264.072 349.463C283.953 392.167 323.701 420.881 323.701 420.881L457.884 343.38C457.884 343.38 418.123 314.678 398.243 271.962C377.996 228.438 378.375 177.265 378.375 159.665Z" fill="#0066FF"/>
<path opacity="0.7" d="M377.152 161.782C377.152 181.463 377.531 230.336 397.142 272.476C414.747 310.284 448.219 337.493 455.67 343.233L323.787 419.412C318.636 415.52 283.329 387.956 265.173 348.937C245.379 306.417 245.403 256.785 245.403 238.095V237.863L377.152 161.782ZM378.375 159.665L244.192 237.165C244.192 254.778 243.825 305.951 264.072 349.463C283.953 392.167 323.701 420.881 323.701 420.881L457.884 343.38C457.884 343.38 418.123 314.678 398.243 271.962C377.996 228.438 378.375 177.265 378.375 159.665Z" fill="white"/>
<path d="M363.193 185.649L320.753 210.165C318.991 211.181 317.609 213.262 317.67 214.804C317.731 216.358 319.211 216.786 320.973 215.771L363.413 191.255C365.162 190.239 366.533 188.158 366.472 186.616C366.41 185.062 364.955 184.633 363.193 185.649Z" fill="#455A64"/>
<path d="M364.098 202.344L321.658 226.86C319.896 227.876 318.575 229.919 318.697 231.437C318.832 232.943 320.373 233.347 322.123 232.331L364.575 207.815C366.324 206.799 367.634 204.755 367.499 203.25C367.377 201.732 365.86 201.328 364.098 202.344Z" fill="#455A64"/>
<path d="M365.799 218.586L323.359 243.101C321.597 244.117 320.337 246.125 320.545 247.593C320.753 249.062 322.356 249.429 324.117 248.413L366.557 223.898C368.307 222.882 369.555 220.874 369.347 219.406C369.126 217.937 367.548 217.582 365.799 218.586Z" fill="#455A64"/>
<path d="M368.343 234.338L325.903 258.854C324.141 259.87 322.943 261.84 323.236 263.26C323.53 264.68 325.194 264.998 326.955 263.994L369.395 239.479C371.145 238.463 372.331 236.492 372.038 235.072C371.732 233.665 370.093 233.334 368.343 234.338Z" fill="#455A64"/>
<path d="M371.793 249.576L329.353 274.092C327.603 275.108 326.466 277.042 326.845 278.413C327.224 279.783 328.961 280.065 330.723 279.049L373.163 254.533C374.925 253.517 376.026 251.596 375.647 250.225C375.255 248.854 373.542 248.56 371.793 249.576Z" fill="#455A64"/>
<path d="M376.21 264.251L272.783 323.992C271.033 325.008 269.969 326.893 270.446 328.215C270.923 329.525 272.746 329.757 274.496 328.754L377.922 269.013C379.672 267.997 380.7 266.112 380.222 264.802C379.745 263.48 377.959 263.235 376.21 264.251Z" fill="#455A64"/>
<path d="M381.715 278.253L278.288 337.994C276.539 339.01 275.572 340.846 276.147 342.095C276.722 343.343 278.631 343.527 280.38 342.523L383.807 282.782C385.569 281.766 386.511 279.942 385.923 278.682C385.361 277.446 383.476 277.25 381.715 278.253Z" fill="#455A64"/>
<path d="M388.468 291.619L285.042 351.36C283.292 352.376 282.411 354.163 283.109 355.35C283.806 356.537 285.812 356.66 287.562 355.644L390.988 295.903C392.75 294.887 393.582 293.112 392.885 291.937C392.187 290.75 390.218 290.603 388.468 291.619Z" fill="#455A64"/>
<path d="M396.42 304.238L292.994 363.979C291.244 364.995 290.449 366.733 291.256 367.859C292.064 368.985 294.144 369.058 295.893 368.043L399.32 308.301C401.069 307.286 401.84 305.56 401.032 304.446C400.237 303.32 398.182 303.222 396.42 304.238Z" fill="#455A64"/>
<path d="M405.449 316.245L302.022 375.986C300.273 377.002 299.551 378.703 300.444 379.768C301.337 380.833 303.49 380.87 305.252 379.854L408.679 320.113C410.428 319.097 411.125 317.42 410.232 316.355C409.339 315.29 407.198 315.229 405.449 316.245Z" fill="#455A64"/>
<path d="M415.444 327.689L312.017 387.43C310.256 388.446 309.619 390.098 310.598 391.126C311.577 392.142 313.804 392.142 315.553 391.126L418.98 331.385C420.729 330.369 421.353 328.729 420.374 327.713C419.408 326.685 417.206 326.673 415.444 327.689Z" fill="#455A64"/>
<path d="M426.381 338.606L322.955 398.348C321.205 399.363 320.63 400.979 321.695 401.958C322.759 402.925 325.047 402.888 326.808 401.873L430.235 342.131C431.985 341.116 432.547 339.524 431.483 338.545C430.406 337.566 428.131 337.591 426.381 338.606Z" fill="#455A64"/>
<path d="M305.387 219.039L256.597 247.226C257.135 264.9 259.154 290.419 266.556 316.11L315.345 287.923C307.943 262.232 305.925 236.712 305.387 219.039Z" fill="#0066FF"/>
<path opacity="0.8" d="M305.387 219.039L256.597 247.226C257.135 264.9 259.154 290.419 266.556 316.11L315.345 287.923C307.943 262.232 305.925 236.712 305.387 219.039Z" fill="white"/>
<path d="M276.49 243.31C276.49 240.568 275.597 238.463 274.104 237.104L256.585 247.226C256.732 251.902 256.976 257.128 257.405 262.746C259.325 263.064 261.589 262.709 264.036 261.583C270.911 258.364 276.49 250.188 276.49 243.31Z" fill="#0066FF"/>
<path opacity="0.6" d="M276.49 243.31C276.49 240.568 275.597 238.463 274.104 237.104L256.585 247.226C256.732 251.902 256.976 257.128 257.405 262.746C259.325 263.064 261.589 262.709 264.036 261.583C270.911 258.364 276.49 250.188 276.49 243.31Z" fill="white"/>
<path d="M311.198 271.032C307.944 266.92 301.325 254.264 298.499 248.744C297.997 247.765 296.566 247.899 296.236 248.952C291.354 264.643 290.938 281.081 290.938 281.081C287.011 277.972 284.197 274.888 280.576 269.551C280.05 268.78 278.863 268.988 278.631 269.894C273.297 290.444 275.976 310.664 275.976 310.664L315.333 287.935C313.706 282.256 312.348 276.601 311.198 271.032Z" fill="#0066FF"/>
<path opacity="0.6" d="M311.198 271.032C307.944 266.92 301.325 254.264 298.499 248.744C297.997 247.765 296.566 247.899 296.236 248.952C291.354 264.643 290.938 281.081 290.938 281.081C287.011 277.972 284.197 274.888 280.576 269.551C280.05 268.78 278.863 268.988 278.631 269.894C273.297 290.444 275.976 310.664 275.976 310.664L315.333 287.935C313.706 282.256 312.348 276.601 311.198 271.032Z" fill="white"/>
<g clip-path="url(#clip1)">
<path d="M290.727 335.819C291.122 334.897 292.115 334.239 293.627 334.057C296.652 333.691 300.582 335.365 302.416 337.8C303.329 339.021 303.548 340.198 303.154 341.112L278.081 406.855H278.074C277.585 408.237 276.175 409.246 273.954 409.517C269.731 410.028 264.23 407.689 261.673 404.282C260.329 402.498 260.073 400.772 260.738 399.464L260.724 399.456L290.727 335.819Z" fill="#455A64"/>
<path d="M302.408 337.8C304.235 340.235 303.27 342.509 300.246 342.874C297.222 343.24 293.291 341.565 291.458 339.131C289.631 336.696 290.595 334.422 293.62 334.057C296.644 333.691 300.582 335.365 302.408 337.8Z" fill="#37474F"/>
<path d="M303.066 316.7C304.892 316.48 307.274 317.489 308.377 318.966C308.932 319.705 309.064 320.414 308.823 320.969L300.692 340.067C300.458 340.622 299.852 341.024 298.938 341.134C297.112 341.353 294.73 340.344 293.627 338.868C293.072 338.129 292.941 337.42 293.182 336.864L301.313 317.767C301.546 317.211 302.146 316.817 303.066 316.7Z" fill="#0066FF"/>
<path opacity="0.2" d="M303.066 316.7C304.892 316.48 307.274 317.489 308.377 318.966C308.932 319.705 309.064 320.414 308.823 320.969L300.692 340.067C300.458 340.622 299.852 341.024 298.938 341.134C297.112 341.353 294.73 340.344 293.627 338.868C293.072 338.129 292.941 337.42 293.182 336.864L301.313 317.767C301.546 317.211 302.146 316.817 303.066 316.7Z" fill="black"/>
<path opacity="0.2" d="M297.565 326.57L298.135 326.899C298.135 326.914 298.135 326.914 298.149 326.914L298.237 326.965V326.95C298.274 326.972 298.317 326.987 298.347 327.009C298.383 327.031 298.427 327.052 298.464 327.074C298.829 327.286 299.187 327.477 299.567 327.652C300.027 327.886 300.502 328.083 300.977 328.273C301.393 328.449 301.824 328.617 302.262 328.749C302.496 328.836 302.715 328.902 302.949 328.953C303.19 329.048 303.439 329.122 303.694 329.173C303.95 329.253 304.191 329.312 304.454 329.363C304.644 329.414 304.819 329.458 305.017 329.48C305.075 329.494 305.141 329.502 305.206 329.516L308.845 320.969C309.078 320.414 308.954 319.705 308.399 318.966C308.187 318.688 307.924 318.432 307.632 318.191C305.185 318.922 302.839 319.324 300.641 319.39L297.565 326.57Z" fill="black"/>
<path opacity="0.15" d="M297.288 342.669L270.834 409.422C271.901 409.582 272.96 409.641 273.954 409.517C276.167 409.246 277.592 408.244 278.074 406.855L278.081 406.863L303.154 341.134C302.759 342.063 301.766 342.706 300.254 342.896C299.318 342.991 298.303 342.903 297.288 342.669Z" fill="black"/>
<path d="M379.956 237.665C379.941 237.109 379.919 236.568 379.868 236.034C379.839 235.493 379.802 234.967 379.751 234.44C379.722 234.082 379.685 233.738 379.642 233.38C379.547 232.466 379.415 231.56 379.269 230.697C379.203 230.302 379.13 229.9 379.05 229.505C378.984 229.125 378.896 228.759 378.816 228.401C378.582 227.399 378.341 226.427 378.056 225.491C377.91 225.045 377.771 224.599 377.625 224.168C377.596 224.102 377.574 224.029 377.56 223.963C377.399 223.532 377.253 223.115 377.085 222.706C376.902 222.23 376.712 221.755 376.493 221.309C376.34 220.973 376.193 220.651 376.018 220.329C375.923 220.088 375.799 219.854 375.667 219.628C375.529 219.342 375.383 219.057 375.222 218.787C375.185 218.721 375.156 218.655 375.112 218.604C374.981 218.363 374.827 218.114 374.681 217.873C374.579 217.705 374.477 217.566 374.382 217.412C373.666 216.286 372.891 215.255 372.051 214.32C371.905 214.151 371.752 213.991 371.62 213.83C371.496 213.691 371.379 213.574 371.255 213.449C371.109 213.289 370.948 213.142 370.78 212.974C370.32 212.514 369.867 212.097 369.377 211.717C369.144 211.519 368.903 211.329 368.662 211.154C368.42 210.964 368.172 210.788 367.916 210.613C367.522 210.328 367.12 210.057 366.711 209.83C366.609 209.765 366.492 209.691 366.39 209.626L366.324 209.575C366.302 209.575 366.302 209.575 366.302 209.575L358.748 205.129C358.733 205.129 358.733 205.129 358.719 205.129L358.617 205.063C355.117 203.038 351.063 202 346.606 202C340.338 202 333.259 204.054 325.757 208.383C299.998 223.269 279.104 259.474 279.104 289.253C279.104 304.102 284.298 314.55 292.685 319.441L292.765 319.478C292.765 319.478 292.765 319.478 292.765 319.493L300.334 323.923C300.334 323.938 300.334 323.938 300.348 323.938L300.436 323.989V323.974C300.472 323.996 300.516 324.011 300.546 324.033C300.582 324.055 300.626 324.077 300.662 324.099C301.028 324.311 301.386 324.501 301.766 324.676C302.226 324.91 302.701 325.108 303.175 325.298C303.592 325.473 304.023 325.641 304.461 325.773C304.695 325.861 304.914 325.927 305.148 325.978C305.389 326.073 305.637 326.146 305.893 326.197C306.149 326.277 306.39 326.336 306.653 326.387C306.843 326.438 307.018 326.482 307.215 326.504C307.537 326.57 307.887 326.643 308.231 326.68C308.311 326.709 308.377 326.716 308.465 326.716C308.866 326.782 309.276 326.84 309.677 326.884C316.625 327.615 324.705 325.656 333.354 320.662C359.128 305.777 380.021 269.556 380.021 239.792C380 239.076 379.985 238.366 379.956 237.665ZM294.942 307.926C293.642 303.422 293.364 298.772 293.364 295.709C293.364 267.495 313.995 231.728 338.41 217.624C342.377 215.343 346.234 213.749 349.835 212.894C351.903 212.397 353.861 212.148 355.716 212.148C356.768 212.148 357.762 212.229 358.697 212.375L358.777 212.404C363.774 218.319 364.512 227.802 364.512 232.868C364.512 261.083 343.903 296.849 319.481 310.946C313.264 314.536 307.296 316.429 302.167 316.429C301.101 316.429 299.881 316.283 299.019 316.027C297.083 313.695 295.79 310.843 294.942 307.926Z" fill="#37474F"/>
<path opacity="0.25" d="M373.286 237.789C373.286 252.777 367.463 269.893 358.346 284.764C357.922 285.473 357.477 286.16 357.031 286.862C356.651 287.462 356.264 288.061 355.855 288.654C355 289.926 354.131 291.183 353.225 292.412C352.794 292.996 352.363 293.581 351.917 294.152C351.442 294.78 350.953 295.409 350.456 296.031C349.521 297.215 348.55 298.37 347.563 299.489C346.913 300.242 346.256 300.973 345.583 301.69C340.214 307.473 334.34 312.349 328.24 315.873C327.071 316.546 325.925 317.16 324.778 317.716C320.584 319.748 316.559 320.948 312.899 321.262C312.227 321.328 311.569 321.357 310.934 321.357C310.59 321.357 310.269 321.35 309.947 321.328C309.933 321.328 309.926 321.32 309.911 321.328C309.268 321.298 308.654 321.233 308.055 321.138C307.756 321.094 307.456 321.043 307.171 320.977C306.879 320.918 306.602 320.852 306.324 320.765C301.911 319.566 299.669 316.882 299.011 316.027C299.873 316.283 301.086 316.429 302.16 316.429C307.281 316.429 313.257 314.536 319.474 310.953C343.903 296.849 364.505 261.083 364.505 232.868C364.505 227.802 363.767 218.326 358.77 212.404L358.689 212.375C365.06 213.398 368.683 217.727 370.722 222.735C371.306 224.153 371.766 225.637 372.117 227.107C372.132 227.187 372.153 227.275 372.168 227.356C372.234 227.626 372.3 227.897 372.351 228.167C372.409 228.43 372.453 228.694 372.504 228.957C372.519 229.015 372.533 229.088 372.541 229.161C372.599 229.447 372.643 229.724 372.687 230.002C372.847 231.048 372.979 232.071 373.067 233.044C373.089 233.329 373.118 233.599 373.132 233.87C373.154 234.075 373.162 234.279 373.176 234.477C373.183 234.557 373.183 234.645 373.183 234.733C373.198 234.952 373.213 235.164 373.22 235.383C373.227 235.442 373.227 235.5 373.227 235.566C373.242 235.837 373.249 236.107 373.257 236.363C373.286 236.853 373.286 237.336 373.286 237.789Z" fill="black"/>
<path d="M299.691 323.558L292.685 319.434C284.291 314.528 279.104 304.088 279.104 289.26C279.104 275.983 283.268 261.426 290.143 248.068L298.12 252.66C291.231 266.025 286.665 280.421 286.665 293.698C286.665 308.226 291.604 318.527 299.691 323.558Z" fill="#263238"/>
<path d="M366.404 209.611L366.338 209.56C366.317 209.56 366.317 209.56 366.317 209.56L358.763 205.115C358.748 205.115 358.748 205.115 358.733 205.115L358.631 205.049C355.117 203.046 351.063 202 346.606 202C340.338 202 333.259 204.054 325.757 208.375C311.475 216.637 298.697 231.435 290.143 248.068L298.076 252.74C298.018 252.85 297.959 252.96 297.908 253.069C306.485 236.626 319.204 221.733 333.325 212.828C346.11 204.764 358.244 204.654 366.718 209.808C366.616 209.743 366.506 209.677 366.404 209.611Z" fill="#455A64"/>
<path opacity="0.3" d="M369.231 235.398C369.231 263.612 348.601 299.379 324.186 313.483C320.219 315.764 316.362 317.358 312.76 318.213C310.693 318.71 308.735 318.959 306.879 318.959C304.607 318.959 302.628 318.593 300.903 317.943C297.872 315.398 296.038 311.706 294.942 307.926C293.642 303.422 293.364 298.772 293.364 295.709C293.364 267.495 313.995 231.728 338.41 217.624C342.377 215.343 346.234 213.749 349.835 212.894C351.903 212.397 353.861 212.148 355.716 212.148C357.988 212.148 359.968 212.514 361.692 213.164C364.724 215.701 366.558 219.401 367.653 223.181C368.954 227.685 369.231 232.335 369.231 235.398Z" fill="white"/>
<path d="M273.391 363.47C274.772 363.777 277.409 364.055 277.409 364.055L279.301 360.041L275.057 358.082L273.391 363.47Z" fill="#FFA8A7"/>
<path d="M263.032 360.48C263.032 360.48 267.737 363.134 273.742 363.529L276.029 360.092L264.574 352.364L263.032 360.48Z" fill="#0066FF"/>
<path opacity="0.3" d="M263.032 360.48C263.032 360.48 267.737 363.134 273.742 363.529L276.029 360.092L264.574 352.364L263.032 360.48Z" fill="black"/>
<path d="M273.062 363.47L274.991 363.755L276.474 359.368C276.474 359.368 274.575 358.455 274.531 358.491C274.487 358.528 273.062 363.47 273.062 363.47Z" fill="#0066FF"/>
<path opacity="0.4" d="M273.062 363.47L274.991 363.755L276.474 359.368C276.474 359.368 274.575 358.455 274.531 358.491C274.487 358.528 273.062 363.47 273.062 363.47Z" fill="black"/>
<path d="M247.501 336.133C245.221 335.906 243.687 337.025 242.811 338.56C242.175 339.672 241.876 341.968 242.051 343.51C242.489 347.385 245.39 355.822 245.39 355.822L247.501 336.133Z" fill="#0066FF"/>
<path opacity="0.4" d="M247.501 336.133C245.221 335.906 243.687 337.025 242.811 338.56C242.175 339.672 241.876 341.968 242.051 343.51C242.489 347.385 245.39 355.822 245.39 355.822L247.501 336.133Z" fill="black"/>
<path d="M243.366 426.939C243.03 427.064 242.84 427.692 242.693 429.22C242.606 430.171 242.277 431.421 243.724 432.196C244.549 432.635 246.025 432.854 247.142 432.16C248.392 431.385 249.027 429.944 250.496 428.789C251.781 427.78 253.389 427.034 254.448 425.192C255.544 423.284 255.317 422.129 253.184 422.121C249.751 422.114 248.72 424.015 246.953 424.059C245.966 424.088 243.694 426.815 243.366 426.939Z" fill="#263238"/>
<path d="M243.366 426.186L243.358 427.729C243.358 428.482 246.565 429.608 247.464 427.883C247.53 427.736 247.88 425.616 247.88 425.616L243.366 426.186Z" fill="#FFA8A7"/>
<path d="M258.247 435.94C258.247 435.94 257.641 435.94 257.4 438.433C257.305 439.383 257.078 441.328 257.407 442.03C257.728 442.732 259.489 443.046 261.454 443.222C262.923 443.353 264.252 444.063 265.611 444.838C266.867 445.547 268.409 445.985 269.826 446C271.689 446.015 273.26 445.817 274.589 444.764C275.298 444.209 276.189 443.024 275.532 442.14C275.298 441.825 274.896 441.745 274.538 441.613C273.713 441.306 272.873 441.021 272.032 440.758C270.776 440.363 269.527 439.924 268.35 439.339C266.612 438.484 264.676 437.526 263.361 436.057L258.247 435.94Z" fill="#263238"/>
<path d="M258.254 434.653C258.254 434.653 258.254 435.801 258.247 436.451C258.24 437.109 259.007 438.089 261.009 438.023C262.411 437.979 263.397 437.607 263.346 436.451L263.354 434.784L258.254 434.653Z" fill="#FFA8A7"/>
<path d="M242.467 405.678C243.198 400.633 244.33 397.643 244.33 397.643C244.33 397.643 243.811 390.697 243.585 384.11C243.336 376.996 243.702 368.215 244.147 363.887C244.147 363.887 266.502 361.766 266.875 369.984C267.24 378.202 266.707 399.12 266.422 402.732C266.129 406.343 265.845 409.729 265.077 416.44C264.42 422.224 263.361 434.777 263.361 434.777C260.738 436.181 258.261 434.646 258.261 434.646C258.261 434.646 256.574 417.786 256.384 413.618C256.136 408.222 257.392 405.239 257.392 405.239C257.392 405.239 256.917 401.84 256.084 394.857C255.5 389.922 254.711 384.3 254.711 384.3C254.711 384.3 253.951 391.26 253.484 395.135C253.053 398.732 252.322 401.569 251.248 408.274C250.313 414.086 247.756 426.391 247.756 426.391C245.134 427.795 243.373 426.172 243.373 426.172C243.373 426.172 241.737 410.723 242.467 405.678Z" fill="#263238"/>
<path d="M254.704 384.307L253.644 377.442C253.644 377.442 249.29 376.06 247.084 373.465C247.084 373.465 248.267 376.484 252.322 378.107L253.944 383.891L254.221 388.665L254.704 384.307Z" fill="black"/>
<path d="M258.378 334.108L257.334 341.448L250.737 341.222L251.372 332.638L258.378 334.108Z" fill="#FFA8A7"/>
<path d="M263.12 325.042C263.12 325.042 264.888 327.637 264.698 327.901C264.508 328.164 263.237 328.412 263.237 328.412L263.12 325.042Z" fill="#F28F8F"/>
<path d="M260.344 324.618C260.322 323.426 261.279 322.446 262.462 322.424C263.653 322.402 264.632 323.36 264.654 324.545C264.676 325.736 263.719 326.716 262.535 326.738C261.344 326.76 260.366 325.81 260.344 324.618ZM260.826 324.61C260.84 325.539 261.607 326.277 262.528 326.263C263.456 326.248 264.194 325.481 264.179 324.559C264.164 323.631 263.397 322.892 262.477 322.907C261.549 322.922 260.811 323.682 260.826 324.61Z" fill="#263238"/>
<path d="M258.203 317.855C261.717 318.535 262.747 320.063 263.164 325.619C263.602 331.425 263.032 333.267 262.287 334.057C261.783 334.59 258.919 334.737 257.465 334.356C255.646 333.888 251.541 332.499 249.583 329.611C247.282 326.204 246.617 321.554 248.991 319.602C252.344 316.86 256.771 317.577 258.203 317.855Z" fill="#FFA8A7"/>
<path d="M258.327 334.51C259.839 334.678 261.87 334.503 262.287 334.064C260.599 334.166 258.532 333.326 258.532 333.326L258.327 334.51Z" fill="#F28F8F"/>
<path d="M263.712 319.259C263.675 319.295 263.638 319.332 263.602 319.368C262.908 320.048 262.009 320.487 261.286 321.13C260.483 321.839 259.942 322.775 259.664 323.806C259.438 324.654 259.357 325.656 258.444 326.058C258.444 326.058 257.831 323.821 255.939 324.128C254.039 324.442 253.82 326.877 255.04 328.339C256.267 329.794 257.378 329.217 257.378 329.217C257.378 329.217 257.37 332.434 255.975 334.276C255.975 334.276 254.361 334.824 251.38 334.239C249.546 333.881 246.916 331.629 245.791 329.224C243.41 324.128 243.176 319.522 246.427 318.081C246.741 315.713 248.589 314.623 250.701 314.104C253.856 313.322 256.852 315.164 259.978 314.411C260.636 314.25 261.264 314.009 261.936 313.914C262.009 313.907 262.097 313.892 262.163 313.929C262.323 314.009 262.316 314.236 262.272 314.411C262.112 315.04 261.805 315.632 261.374 316.122C262.601 316.188 263.748 315.99 264.917 315.618C265.078 316.919 264.617 318.294 263.712 319.259Z" fill="#263238"/>
<path d="M246.894 319.215L244.783 318.016C245.112 317.431 245.857 317.226 246.442 317.562C247.026 317.891 247.231 318.637 246.894 319.215Z" fill="#263238"/>
<path d="M258.481 327.316L258.379 324.888C259.051 324.859 259.614 325.378 259.643 326.051C259.672 326.723 259.153 327.286 258.481 327.316Z" fill="#263238"/>
<path d="M264.45 324.099L257.955 325.049L258.225 325.502L264.457 324.589L264.45 324.099Z" fill="#263238"/>
<path d="M243.446 340.176C244.213 337.164 245.302 336.177 247.924 336.111C248.706 336.089 251.387 336.513 251.957 336.623C252.235 337.895 255.522 338.765 258.846 338.071C259.832 338.363 262.455 339.072 263.28 339.372C265.633 340.227 266.772 342.677 266.933 350.441C266.933 350.441 267.386 368.866 266.926 372.046C260.987 374.364 254.828 374.261 251.424 373.494C244.337 371.907 243.497 368.961 243.497 368.961C243.497 368.961 243.87 361.569 244.111 355.947C243.753 352.364 243.22 349.674 243.03 346.815C242.84 343.927 243.161 341.309 243.446 340.176Z" fill="#0066FF"/>
<g opacity="0.6">
<path opacity="0.6" d="M243.446 340.176C244.213 337.164 245.302 336.177 247.924 336.111C248.706 336.089 251.387 336.513 251.957 336.623C252.235 337.895 255.522 338.765 258.846 338.071C259.832 338.363 262.455 339.072 263.28 339.372C265.633 340.227 266.772 342.677 266.933 350.441C266.933 350.441 267.386 368.866 266.926 372.046C260.987 374.364 254.828 374.261 251.424 373.494C244.337 371.907 243.497 368.961 243.497 368.961C243.497 368.961 243.87 361.569 244.111 355.947C243.753 352.364 243.22 349.674 243.03 346.815C242.84 343.927 243.161 341.309 243.446 340.176Z" fill="white"/>
</g>
<path d="M251.219 334.715L251.168 335.424C251.168 335.424 251.519 336.426 253.521 336.791C256.888 337.42 258.065 336.367 258.065 336.367L258.152 335.76C258.152 335.76 258.474 335.629 259.022 336.045C259.57 336.469 261.352 338.772 261.352 338.772C261.352 338.772 260.709 338.582 258.605 339.482C256.421 340.41 253.718 340.293 252.038 339.73C250.357 339.167 249.722 337.654 249.641 337.032C249.561 336.411 250.635 334.466 251.219 334.715Z" fill="#0066FF"/>
<path opacity="0.25" d="M251.219 334.715L251.168 335.424C251.168 335.424 251.519 336.426 253.521 336.791C256.888 337.42 258.065 336.367 258.065 336.367L258.152 335.76C258.152 335.76 258.474 335.629 259.022 336.045C259.57 336.469 261.352 338.772 261.352 338.772C261.352 338.772 260.709 338.582 258.605 339.482C256.421 340.41 253.718 340.293 252.038 339.73C250.357 339.167 249.722 337.654 249.641 337.032C249.561 336.411 250.635 334.466 251.219 334.715Z" fill="black"/>
<path d="M263.01 339.226C266.006 339.606 268.372 340.227 269.68 343.086C271.894 347.933 274.29 351.904 276.036 353.775C277.899 355.771 285.533 359.288 287.257 359.01C288.981 358.732 290.698 356.751 291.582 357.263C292.466 357.774 290.829 359.697 290.932 360.129C291.034 360.56 294.161 360.333 295.636 359.288C297.112 358.242 297.66 360.399 295.746 362.637C293.839 364.874 290.252 365.049 286.359 364.267C282.465 363.485 274.531 361.628 271.543 359.171C267.92 356.188 267.277 353.731 265.735 351.055C260.161 345.294 263.01 339.226 263.01 339.226Z" fill="#FFA8A7"/>
<path d="M262.579 339.145C262.579 339.145 265.787 339.138 267.467 340.176C269.147 341.207 270.206 343.393 271.594 346.427C272.982 349.462 275.422 352.693 276.153 353.607C276.884 354.514 282.209 357.482 282.209 357.482C282.209 357.482 281.712 360.845 280.639 363.017C280.639 363.017 275.276 361.671 272.047 359.939C268.826 358.206 263.916 351.267 263.916 351.267C263.916 351.267 260.454 346.676 262.579 339.145Z" fill="#0066FF"/>
<path opacity="0.15" d="M262.579 339.145C262.579 339.145 265.787 339.138 267.467 340.176C269.147 341.207 270.206 343.393 271.594 346.427C272.982 349.462 275.422 352.693 276.153 353.607C276.884 354.514 282.209 357.482 282.209 357.482C282.209 357.482 281.712 360.845 280.639 363.017C280.639 363.017 275.276 361.671 272.047 359.939C268.826 358.206 263.916 351.267 263.916 351.267C263.916 351.267 260.454 346.676 262.579 339.145Z" fill="black"/>
<path d="M281.888 357.292C281.888 357.292 281.895 359.895 280.215 362.9C280.215 362.9 282.129 363.412 283.086 363.521C283.086 363.521 284.773 361.832 284.678 358.462L281.888 357.292Z" fill="#0066FF"/>
<path opacity="0.3" d="M281.888 357.292C281.888 357.292 281.895 359.895 280.215 362.9C280.215 362.9 282.129 363.412 283.086 363.521C283.086 363.521 284.773 361.832 284.678 358.462L281.888 357.292Z" fill="black"/>
<path d="M283.517 358.827C283.517 359.01 283.363 359.164 283.181 359.164C282.998 359.164 282.845 359.01 282.845 358.827C282.845 358.645 282.998 358.491 283.181 358.491C283.363 358.491 283.517 358.645 283.517 358.827Z" fill="#455A64"/>
</g>
</g>
<defs>
<clipPath id="clip0">
<rect width="548" height="437" fill="white"/>
</clipPath>
<clipPath id="clip1">
<rect x="242" y="202" width="138" height="244" fill="white"/>
</clipPath>
</defs>
</svg>
